EESchema Schematic File Version 4
LIBS:Pi-COMMS-cache
EELAYER 26 0
EELAYER END
$Descr A4 11693 8268
encoding utf-8
Sheet 1 3
Title ""
Date "15 nov 2012"
Rev ""
Comp ""
Comment1 ""
Comment2 ""
Comment3 ""
Comment4 ""
$EndDescr
$Comp
L power:+5V #PWR01
U 1 1 580C1B61
P 2300 950
F 0 "#PWR01" H 2300 800 50  0001 C CNN
F 1 "+5V" H 2300 1090 50  0000 C CNN
F 2 "" H 2300 950 50  0000 C CNN
F 3 "" H 2300 950 50  0000 C CNN
	1    2300 950 
	-1   0    0    -1  
$EndComp
Wire Wire Line
	2300 950  2300 1100
Wire Wire Line
	2300 1100 2500 1100
Wire Wire Line
	2300 1200 2500 1200
Connection ~ 2300 1100
$Comp
L power:GND #PWR02
U 1 1 580C1D11
P 2400 3150
F 0 "#PWR02" H 2400 2900 50  0001 C CNN
F 1 "GND" H 2400 3000 50  0000 C CNN
F 2 "" H 2400 3150 50  0000 C CNN
F 3 "" H 2400 3150 50  0000 C CNN
	1    2400 3150
	-1   0    0    -1  
$EndComp
Wire Wire Line
	2400 1300 2400 1700
Wire Wire Line
	2400 2700 2500 2700
Wire Wire Line
	2400 2500 2500 2500
Connection ~ 2400 2700
Wire Wire Line
	2400 2000 2500 2000
Connection ~ 2400 2500
Wire Wire Line
	2400 1700 2500 1700
Connection ~ 2400 2000
$Comp
L power:GND #PWR03
U 1 1 580C1E01
P 3100 3150
F 0 "#PWR03" H 3100 2900 50  0001 C CNN
F 1 "GND" H 3100 3000 50  0000 C CNN
F 2 "" H 3100 3150 50  0000 C CNN
F 3 "" H 3100 3150 50  0000 C CNN
	1    3100 3150
	-1   0    0    -1  
$EndComp
Wire Wire Line
	3100 3000 3000 3000
Wire Wire Line
	3100 1500 3100 2300
Wire Wire Line
	3100 2300 3000 2300
Connection ~ 3100 3000
Connection ~ 3200 1100
Wire Wire Line
	3200 1900 3000 1900
Wire Wire Line
	3200 1100 3000 1100
Wire Wire Line
	3200 950  3200 1100
$Comp
L power:+3.3V #PWR04
U 1 1 580C1BC1
P 3200 950
F 0 "#PWR04" H 3200 800 50  0001 C CNN
F 1 "+3.3V" H 3200 1090 50  0000 C CNN
F 2 "" H 3200 950 50  0000 C CNN
F 3 "" H 3200 950 50  0000 C CNN
	1    3200 950 
	-1   0    0    -1  
$EndComp
Wire Wire Line
	3100 1500 3000 1500
Connection ~ 3100 2300
Wire Wire Line
	3000 1200 4150 1200
Wire Wire Line
	4150 1300 3000 1300
Wire Wire Line
	4150 1400 3000 1400
Wire Wire Line
	3000 1600 4150 1600
Wire Wire Line
	4150 1700 3000 1700
Wire Wire Line
	3000 2000 4550 2000
Wire Wire Line
	4550 2100 3000 2100
Wire Wire Line
	4550 2200 3000 2200
Wire Wire Line
	3000 2400 4150 2400
Wire Wire Line
	3000 2700 4150 2700
Wire Wire Line
	4150 2800 3000 2800
Wire Wire Line
	4150 2900 3000 2900
Wire Wire Line
	2500 2800 1450 2800
Wire Wire Line
	2500 2900 1450 2900
Wire Wire Line
	2500 2300 1450 2300
Wire Wire Line
	2500 2400 1450 2400
Wire Wire Line
	2500 2100 1450 2100
Wire Wire Line
	2500 2200 1450 2200
Wire Wire Line
	2500 1800 1450 1800
Wire Wire Line
	2500 1900 1450 1900
Wire Wire Line
	2500 1500 1450 1500
Wire Wire Line
	2500 1600 1450 1600
Wire Wire Line
	2500 1400 1450 1400
Wire Wire Line
	2500 2600 1450 2600
Text Label 4150 1200 2    50   ~ 0
GPIO2(SDA1)
Text Label 4150 1300 2    50   ~ 0
GPIO3(SCL1)
Text Label 4150 1400 2    50   ~ 0
GPIO4(GCLK)
Text Label 4150 1600 2    50   ~ 0
GPIO17(GEN0)
Text Label 4150 1700 2    50   ~ 0
GPIO27(GEN2)
Text Label 4150 1800 2    50   ~ 0
GPIO22(GEN3)
Text Label 4150 2000 2    50   ~ 0
GPIO10(SPI0_MOSI)
Text Label 4150 2100 2    50   ~ 0
GPIO9(SPI0_MISO)
Text Label 4150 2200 2    50   ~ 0
GPIO11(SPI0_SCK)
Text Label 4150 2400 2    50   ~ 0
ID_SD
Text Label 4150 2600 2    50   ~ 0
GPIO6
Text Label 4150 2700 2    50   ~ 0
GPIO13(PWM1)
Text Label 4150 2800 2    50   ~ 0
GPIO19(SPI1_MISO)
Text Label 4150 2900 2    50   ~ 0
GPIO26
Text Label 1450 2900 0    50   ~ 0
GPIO20(SPI1_MOSI)
Text Label 1450 2800 0    50   ~ 0
GPIO16
Text Label 1450 2600 0    50   ~ 0
GPIO12(PWM0)
Text Label 1450 2400 0    50   ~ 0
ID_SC
Text Label 1450 2300 0    50   ~ 0
GPIO7(SPI1_CE_N)
Text Label 1450 2200 0    50   ~ 0
GPIO8(SPI0_CE_N)
Text Label 1450 2100 0    50   ~ 0
GPIO25(GEN6)
Text Label 1450 1900 0    50   ~ 0
GPIO24(GEN5)
Text Label 1450 1800 0    50   ~ 0
GPIO23(GEN4)
Text Label 1450 1600 0    50   ~ 0
GPIO18(GEN1)(PWM0)
Text Label 1450 1500 0    50   ~ 0
GPIO15(RXD0)
Text Label 1450 1400 0    50   ~ 0
GPIO14(TXD0)
Wire Wire Line
	2400 1300 2500 1300
Connection ~ 2400 1700
Text Notes 650  7600 0    50   ~ 0
ID_SD and ID_SC PINS:\nThese pins are reserved for HAT ID EEPROM.\n\nAt boot time this I2C interface will be\ninterrogated to look for an EEPROM\nthat identifes the attached board and\nallows automagic setup of the GPIOs\n(and optionally, Linux drivers).\n\nDO NOT USE these pins for anything other\nthan attaching an I2C ID EEPROM. Leave\nunconnected if ID EEPROM not required.
$Comp
L Mechanical:Mounting_Hole MK1
U 1 1 5834FB2E
P 3000 7200
F 0 "MK1" H 3100 7246 50  0000 L CNN
F 1 "M2.5" H 3100 7155 50  0000 L CNN
F 2 "MountingHole:MountingHole_2.7mm_M2.5" H 3000 7200 60  0001 C CNN
F 3 "" H 3000 7200 60  0001 C CNN
	1    3000 7200
	1    0    0    -1  
$EndComp
$Comp
L Mechanical:Mounting_Hole MK3
U 1 1 5834FBEF
P 3450 7200
F 0 "MK3" H 3550 7246 50  0000 L CNN
F 1 "M2.5" H 3550 7155 50  0000 L CNN
F 2 "MountingHole:MountingHole_2.7mm_M2.5" H 3450 7200 60  0001 C CNN
F 3 "" H 3450 7200 60  0001 C CNN
	1    3450 7200
	1    0    0    -1  
$EndComp
$Comp
L Mechanical:Mounting_Hole MK2
U 1 1 5834FC19
P 3000 7400
F 0 "MK2" H 3100 7446 50  0000 L CNN
F 1 "M2.5" H 3100 7355 50  0000 L CNN
F 2 "MountingHole:MountingHole_2.7mm_M2.5" H 3000 7400 60  0001 C CNN
F 3 "" H 3000 7400 60  0001 C CNN
	1    3000 7400
	1    0    0    -1  
$EndComp
$Comp
L Mechanical:Mounting_Hole MK4
U 1 1 5834FC4F
P 3450 7400
F 0 "MK4" H 3550 7446 50  0000 L CNN
F 1 "M2.5" H 3550 7355 50  0000 L CNN
F 2 "MountingHole:MountingHole_2.7mm_M2.5" H 3450 7400 60  0001 C CNN
F 3 "" H 3450 7400 60  0001 C CNN
	1    3450 7400
	1    0    0    -1  
$EndComp
Text Notes 3000 7050 0    50   ~ 0
Mounting Holes
$Comp
L Connector_Generic:Conn_02x20_Odd_Even P1
U 1 1 59AD464A
P 2800 2000
F 0 "P1" H 2850 3117 50  0000 C CNN
F 1 "Conn_02x20_Odd_Even" H 2850 3026 50  0000 C CNN
F 2 "Connector_PinSocket_2.54mm:PinSocket_2x20_P2.54mm_Vertical" H -2050 1050 50  0001 C CNN
F 3 "" H -2050 1050 50  0001 C CNN
	1    2800 2000
	-1   0    0    -1  
$EndComp
Wire Wire Line
	2500 3000 1450 3000
Text Label 1450 3000 0    50   ~ 0
GPIO21(SPI1_SCK)
Wire Wire Line
	2300 1100 2300 1200
Wire Wire Line
	2400 2700 2400 3150
Wire Wire Line
	2400 2500 2400 2700
Wire Wire Line
	2400 2000 2400 2500
Wire Wire Line
	3100 3000 3100 3150
Wire Wire Line
	3200 1100 3200 1900
Wire Wire Line
	3100 2300 3100 3000
Wire Wire Line
	2400 1700 2400 2000
$Sheet
S 4550 1100 1750 1800
U 5AFF310C
F0 "Radio" 50
F1 "Radio.sch" 50
F2 "RF_MISO" I L 4550 2100 50 
F3 "RF_MOSI" I L 4550 2000 50 
F4 "RF_SCK" I L 4550 2200 50 
F5 "RF_IRQ" I L 4550 2600 50 
F6 "PA_PDet" I L 4550 2800 50 
F7 "RF_CS" I L 4550 2300 50 
$EndSheet
Wire Wire Line
	3000 1800 4150 1800
NoConn ~ 1450 1400
NoConn ~ 1450 1500
NoConn ~ 1450 1600
NoConn ~ 1450 1800
NoConn ~ 1450 1900
NoConn ~ 1450 2100
NoConn ~ 1450 2300
NoConn ~ 1450 2400
NoConn ~ 1450 2600
NoConn ~ 1450 2800
NoConn ~ 1450 2900
NoConn ~ 1450 3000
NoConn ~ 4150 2900
NoConn ~ 4150 2800
NoConn ~ 4150 2700
NoConn ~ 4150 2400
NoConn ~ 4150 1800
NoConn ~ 4150 1700
NoConn ~ 4150 1600
NoConn ~ 4150 1400
NoConn ~ 4150 1300
NoConn ~ 4150 1200
$Comp
L power:VCC #PWR0106
U 1 1 5B017681
P 7650 900
F 0 "#PWR0106" H 7650 750 50  0001 C CNN
F 1 "VCC" V 7667 1028 50  0000 L CNN
F 2 "" H 7650 900 50  0001 C CNN
F 3 "" H 7650 900 50  0001 C CNN
	1    7650 900 
	0    1    1    0   
$EndComp
$Comp
L power:+3.3V #PWR0107
U 1 1 5B0176E8
P 7350 900
F 0 "#PWR0107" H 7350 750 50  0001 C CNN
F 1 "+3.3V" V 7365 1028 50  0000 L CNN
F 2 "" H 7350 900 50  0001 C CNN
F 3 "" H 7350 900 50  0001 C CNN
	1    7350 900 
	0    -1   -1   0   
$EndComp
Wire Wire Line
	7350 900  7500 900 
$Comp
L power:PWR_FLAG #FLG0101
U 1 1 5B019C31
P 1900 950
F 0 "#FLG0101" H 1900 1025 50  0001 C CNN
F 1 "PWR_FLAG" H 1900 1124 50  0000 C CNN
F 2 "" H 1900 950 50  0001 C CNN
F 3 "~" H 1900 950 50  0001 C CNN
	1    1900 950 
	1    0    0    -1  
$EndComp
Wire Wire Line
	1900 950  1900 1100
Wire Wire Line
	1900 1100 2300 1100
$Comp
L power:PWR_FLAG #FLG0102
U 1 1 5B01B0B8
P 7500 900
F 0 "#FLG0102" H 7500 975 50  0001 C CNN
F 1 "PWR_FLAG" H 7500 1074 50  0000 C CNN
F 2 "" H 7500 900 50  0001 C CNN
F 3 "~" H 7500 900 50  0001 C CNN
	1    7500 900 
	1    0    0    -1  
$EndComp
Connection ~ 7500 900 
Wire Wire Line
	7500 900  7650 900 
$Comp
L power:PWR_FLAG #FLG0103
U 1 1 5B01B615
P 8350 900
F 0 "#FLG0103" H 8350 975 50  0001 C CNN
F 1 "PWR_FLAG" H 8350 1074 50  0000 C CNN
F 2 "" H 8350 900 50  0001 C CNN
F 3 "~" H 8350 900 50  0001 C CNN
	1    8350 900 
	1    0    0    -1  
$EndComp
$Comp
L power:GND #PWR0108
U 1 1 5B01B693
P 8350 1000
F 0 "#PWR0108" H 8350 750 50  0001 C CNN
F 1 "GND" H 8355 827 50  0000 C CNN
F 2 "" H 8350 1000 50  0001 C CNN
F 3 "" H 8350 1000 50  0001 C CNN
	1    8350 1000
	1    0    0    -1  
$EndComp
Wire Wire Line
	8350 900  8350 1000
Wire Wire Line
	4550 2600 3000 2600
NoConn ~ 3000 2500
Text Label 4150 2300 2    50   ~ 0
GPIO8(SPI0_CE_N)
Wire Wire Line
	4550 2300 4150 2300
$EndSCHEMATC
