EESchema Schematic File Version 4
LIBS:Pi-COMMS-cache
EELAYER 26 0
EELAYER END
$Descr A4 11693 8268
encoding utf-8
Sheet 3 3
Title ""
Date ""
Rev ""
Comp ""
Comment1 ""
Comment2 ""
Comment3 ""
Comment4 ""
$EndDescr
$Comp
L Device:L L3
U 1 1 5A7D1DA8
P 7250 3900
F 0 "L3" V 7200 3900 50  0000 C CNN
F 1 "12nH" V 7325 3900 50  0000 C CNN
F 2 "Inductor_SMD:L_0603_1608Metric_Pad0.99x1.00mm_HandSolder" H 7250 3900 50  0001 C CNN
F 3 "" H 7250 3900 50  0001 C CNN
F 4 "LL1608--FH12NK" V 7250 3900 60  0001 C CNN "Part Number"
	1    7250 3900
	0    -1   -1   0   
$EndComp
$Comp
L Device:L L5
U 1 1 5A7D1DAF
P 7550 4600
F 0 "L5" V 7500 4600 50  0000 C CNN
F 1 "5.6nH" V 7625 4600 50  0000 C CNN
F 2 "Inductor_SMD:L_0603_1608Metric_Pad0.99x1.00mm_HandSolder" H 7550 4600 50  0001 C CNN
F 3 "" H 7550 4600 50  0001 C CNN
F 4 "LL1608--FH5N6K" V 7550 4600 60  0001 C CNN "Part Number"
	1    7550 4600
	0    -1   -1   0   
$EndComp
$Comp
L Device:L L4
U 1 1 5A7D1DB6
P 7400 4900
F 0 "L4" V 7350 4900 50  0000 C CNN
F 1 "22nH" V 7475 4900 50  0000 C CNN
F 2 "Inductor_SMD:L_0603_1608Metric_Pad0.99x1.00mm_HandSolder" H 7400 4900 50  0001 C CNN
F 3 "" H 7400 4900 50  0001 C CNN
F 4 "LL1005--FH33NK" V 7400 4900 60  0001 C CNN "Part Number"
	1    7400 4900
	1    0    0    -1  
$EndComp
$Comp
L Device:L L1
U 1 1 5A7D1DBD
P 4850 4800
F 0 "L1" V 4800 4800 50  0000 C CNN
F 1 "3.9nH" V 4925 4800 50  0000 C CNN
F 2 "Inductor_SMD:L_0603_1608Metric_Pad0.99x1.00mm_HandSolder" H 4850 4800 50  0001 C CNN
F 3 "" H 4850 4800 50  0001 C CNN
F 4 "LL1608--FH3N9K" V 4850 4800 50  0001 C CNN "Part Number"
	1    4850 4800
	0    -1   -1   0   
$EndComp
$Comp
L Device:L L2
U 1 1 5A7D1DC4
P 5300 3400
F 0 "L2" V 5250 3400 50  0000 C CNN
F 1 "5.6nH" V 5375 3400 50  0000 C CNN
F 2 "Inductor_SMD:L_0603_1608Metric_Pad0.99x1.00mm_HandSolder" H 5300 3400 50  0001 C CNN
F 3 "" H 5300 3400 50  0001 C CNN
F 4 "LL1608--FH5N6K" V 5300 3400 60  0001 C CNN "Part Number"
	1    5300 3400
	0    -1   -1   0   
$EndComp
$Comp
L Device:C C3
U 1 1 5A7D1DCB
P 7100 4600
F 0 "C3" H 7125 4700 50  0000 L CNN
F 1 "220pF" H 7125 4500 50  0000 L CNN
F 2 "Capacitor_SMD:C_0603_1608Metric_Pad0.99x1.00mm_HandSolder" H 7138 4450 50  0001 C CNN
F 3 "" H 7100 4600 50  0001 C CNN
F 4 "GRM1555C1H221JA01ND" H 7100 4600 50  0001 C CNN "Part Number"
	1    7100 4600
	0    1    1    0   
$EndComp
$Comp
L Device:C C11
U 1 1 5A7D1DD2
P 7950 4050
F 0 "C11" H 7975 4150 50  0000 L CNN
F 1 "4.7uF" H 7975 3950 50  0000 L CNN
F 2 "Capacitor_SMD:C_0603_1608Metric_Pad0.99x1.00mm_HandSolder" H 7988 3900 50  0001 C CNN
F 3 "" H 7950 4050 50  0001 C CNN
	1    7950 4050
	1    0    0    -1  
$EndComp
$Comp
L Device:C C12
U 1 1 5A7D1DD9
P 7550 4050
F 0 "C12" H 7575 4150 50  0000 L CNN
F 1 "1000pF" H 7575 3950 50  0000 L CNN
F 2 "Capacitor_SMD:C_0603_1608Metric_Pad0.99x1.00mm_HandSolder" H 7588 3900 50  0001 C CNN
F 3 "" H 7550 4050 50  0001 C CNN
	1    7550 4050
	1    0    0    -1  
$EndComp
$Comp
L Device:C C8
U 1 1 5A7D1DE0
P 3550 4150
F 0 "C8" H 3575 4250 50  0000 L CNN
F 1 "1uF" H 3575 4050 50  0000 L CNN
F 2 "Capacitor_SMD:C_0603_1608Metric_Pad0.99x1.00mm_HandSolder" H 3588 4000 50  0001 C CNN
F 3 "" H 3550 4150 50  0001 C CNN
F 4 "GRM188R61A105KA61ND" H 3550 4150 60  0001 C CNN "Part Number"
	1    3550 4150
	1    0    0    -1  
$EndComp
$Comp
L Device:C C10
U 1 1 5A7D1DE7
P 5500 3600
F 0 "C10" H 5525 3700 50  0000 L CNN
F 1 "2.4pF" H 5525 3500 50  0000 L CNN
F 2 "Capacitor_SMD:C_0603_1608Metric_Pad0.99x1.00mm_HandSolder" H 5538 3450 50  0001 C CNN
F 3 "" H 5500 3600 50  0001 C CNN
F 4 "04023J2R4BBS" H 5500 3600 50  0001 C CNN "Part Number"
	1    5500 3600
	1    0    0    -1  
$EndComp
$Comp
L Device:C C5
U 1 1 5A7D1DF5
P 6050 5600
F 0 "C5" H 6075 5700 50  0000 L CNN
F 1 "100pF" H 6075 5500 50  0000 L CNN
F 2 "Capacitor_SMD:C_0603_1608Metric_Pad0.99x1.00mm_HandSolder" H 6088 5450 50  0001 C CNN
F 3 "" H 6050 5600 50  0001 C CNN
F 4 "GRM1555C1H101JA01ND" H 50  700 50  0001 C CNN "Part Number"
	1    6050 5600
	1    0    0    -1  
$EndComp
$Comp
L power:GND #PWR013
U 1 1 5A7D1DFC
P 6050 5750
F 0 "#PWR013" H 6050 5500 50  0001 C CNN
F 1 "GND" H 6050 5600 50  0000 C CNN
F 2 "" H 6050 5750 50  0001 C CNN
F 3 "" H 6050 5750 50  0001 C CNN
	1    6050 5750
	1    0    0    -1  
$EndComp
$Comp
L power:GND #PWR014
U 1 1 5A7D1E02
P 7400 5050
F 0 "#PWR014" H 7400 4800 50  0001 C CNN
F 1 "GND" H 7400 4900 50  0000 C CNN
F 2 "" H 7400 5050 50  0001 C CNN
F 3 "" H 7400 5050 50  0001 C CNN
	1    7400 5050
	1    0    0    -1  
$EndComp
$Comp
L power:GND #PWR015
U 1 1 5A7D1E08
P 7850 4900
F 0 "#PWR015" H 7850 4650 50  0001 C CNN
F 1 "GND" H 7850 4750 50  0000 C CNN
F 2 "" H 7850 4900 50  0001 C CNN
F 3 "" H 7850 4900 50  0001 C CNN
	1    7850 4900
	1    0    0    -1  
$EndComp
$Comp
L power:GND #PWR016
U 1 1 5A7D1E0E
P 6500 3800
F 0 "#PWR016" H 6500 3550 50  0001 C CNN
F 1 "GND" H 6500 3650 50  0000 C CNN
F 2 "" H 6500 3800 50  0001 C CNN
F 3 "" H 6500 3800 50  0001 C CNN
	1    6500 3800
	-1   0    0    1   
$EndComp
$Comp
L power:GND #PWR017
U 1 1 5A7D1E14
P 7550 4200
F 0 "#PWR017" H 7550 3950 50  0001 C CNN
F 1 "GND" H 7550 4050 50  0000 C CNN
F 2 "" H 7550 4200 50  0001 C CNN
F 3 "" H 7550 4200 50  0001 C CNN
	1    7550 4200
	1    0    0    -1  
$EndComp
$Comp
L power:GND #PWR018
U 1 1 5A7D1E1A
P 7950 4200
F 0 "#PWR018" H 7950 3950 50  0001 C CNN
F 1 "GND" H 7950 4050 50  0000 C CNN
F 2 "" H 7950 4200 50  0001 C CNN
F 3 "" H 7950 4200 50  0001 C CNN
	1    7950 4200
	1    0    0    -1  
$EndComp
$Comp
L power:GND #PWR019
U 1 1 5A7D1E20
P 5500 3800
F 0 "#PWR019" H 5500 3550 50  0001 C CNN
F 1 "GND" H 5500 3650 50  0000 C CNN
F 2 "" H 5500 3800 50  0001 C CNN
F 3 "" H 5500 3800 50  0001 C CNN
	1    5500 3800
	1    0    0    -1  
$EndComp
$Comp
L power:GND #PWR020
U 1 1 5A7D1E26
P 3550 4300
F 0 "#PWR020" H 3550 4050 50  0001 C CNN
F 1 "GND" H 3550 4150 50  0000 C CNN
F 2 "" H 3550 4300 50  0001 C CNN
F 3 "" H 3550 4300 50  0001 C CNN
	1    3550 4300
	1    0    0    -1  
$EndComp
$Comp
L Device:C C4
U 1 1 5A7D1E2C
P 7850 4750
F 0 "C4" H 7875 4850 50  0000 L CNN
F 1 "12pF" H 7875 4650 50  0000 L CNN
F 2 "Capacitor_SMD:C_0603_1608Metric_Pad0.99x1.00mm_HandSolder" H 7888 4600 50  0001 C CNN
F 3 "" H 7850 4750 50  0001 C CNN
F 4 "06033J180GBT2A" H 7850 4750 50  0001 C CNN "Part Number"
	1    7850 4750
	1    0    0    -1  
$EndComp
$Comp
L Device:R R2
U 1 1 5A7D1E45
P 4250 4350
F 0 "R2" V 4330 4350 50  0000 C CNN
F 1 "1K" V 4250 4350 50  0000 C CNN
F 2 "Resistor_SMD:R_0603_1608Metric_Pad0.99x1.00mm_HandSolder" V 4180 4350 50  0001 C CNN
F 3 "" H 4250 4350 50  0001 C CNN
	1    4250 4350
	0    1    1    0   
$EndComp
$Comp
L Device:R R1
U 1 1 5A7D1E4C
P 4250 4500
F 0 "R1" V 4330 4500 50  0000 C CNN
F 1 "510" V 4250 4500 50  0000 C CNN
F 2 "Resistor_SMD:R_0603_1608Metric_Pad0.99x1.00mm_HandSolder" V 4180 4500 50  0001 C CNN
F 3 "" H 4250 4500 50  0001 C CNN
	1    4250 4500
	0    1    1    0   
$EndComp
$Comp
L Device:C C6
U 1 1 5A7D1E53
P 4000 5050
F 0 "C6" H 4025 5150 50  0000 L CNN
F 1 "100pF" H 4025 4950 50  0000 L CNN
F 2 "Capacitor_SMD:C_0603_1608Metric_Pad0.99x1.00mm_HandSolder" H 4038 4900 50  0001 C CNN
F 3 "" H 4000 5050 50  0001 C CNN
F 4 "GRM1555C1H101JA01ND" H 50  700 50  0001 C CNN "Part Number"
	1    4000 5050
	1    0    0    -1  
$EndComp
$Comp
L power:GND #PWR024
U 1 1 5A7D1E5A
P 4000 5200
F 0 "#PWR024" H 4000 4950 50  0001 C CNN
F 1 "GND" H 4000 5050 50  0000 C CNN
F 2 "" H 4000 5200 50  0001 C CNN
F 3 "" H 4000 5200 50  0001 C CNN
	1    4000 5200
	1    0    0    -1  
$EndComp
Wire Wire Line
	6050 5150 6050 5450
Wire Wire Line
	7400 3900 7550 3900
Wire Wire Line
	7400 4600 7250 4600
Wire Wire Line
	6950 4600 6500 4600
Wire Wire Line
	7400 4750 7400 4600
Wire Wire Line
	5800 3400 5800 4050
Wire Wire Line
	7100 3900 6800 3900
Wire Wire Line
	6800 3900 6800 4450
Wire Wire Line
	6800 4450 6500 4450
Wire Wire Line
	4000 3950 4000 4000
Wire Wire Line
	4100 4350 4000 4350
Connection ~ 4000 4350
Wire Wire Line
	4100 4500 4000 4500
Connection ~ 4000 4500
Wire Wire Line
	5300 4650 4000 4650
Connection ~ 4000 4650
Wire Wire Line
	4400 4350 5300 4350
Wire Wire Line
	5300 4500 4400 4500
Wire Wire Line
	3550 4000 4000 4000
Connection ~ 4000 4000
Text HLabel 4550 4800 0    60   Input ~ 0
PA_RF_IN
Text HLabel 8600 4600 2    60   Input ~ 0
PA_RF_OUT
Text HLabel 4900 2450 0    60   Input ~ 0
PowerDown
Text HLabel 6050 5300 0    60   Input ~ 0
PDET
$Comp
L Device:C C9
U 1 1 5A7D87E7
P 5050 3600
F 0 "C9" H 5075 3700 50  0000 L CNN
F 1 "1uF" H 5075 3500 50  0000 L CNN
F 2 "Capacitor_SMD:C_0603_1608Metric_Pad0.99x1.00mm_HandSolder" H 5088 3450 50  0001 C CNN
F 3 "" H 5050 3600 50  0001 C CNN
F 4 "GRM188R61A105KA61ND" H 5050 3600 60  0001 C CNN "Part Number"
	1    5050 3600
	1    0    0    -1  
$EndComp
$Comp
L power:GND #PWR025
U 1 1 5A7D8882
P 5050 3800
F 0 "#PWR025" H 5050 3550 50  0001 C CNN
F 1 "GND" H 5050 3650 50  0000 C CNN
F 2 "" H 5050 3800 50  0001 C CNN
F 3 "" H 5050 3800 50  0001 C CNN
	1    5050 3800
	1    0    0    -1  
$EndComp
$Comp
L lsd-kicad:MMZ09332B U5
U 1 1 5A7DBC7A
P 5900 4600
F 0 "U5" H 6300 5100 60  0000 C CNN
F 1 "MMZ09332B" H 5550 4100 60  0000 C CNN
F 2 "lsf-kicad-lib:MMZ09332B" H 6200 5000 60  0001 C CNN
F 3 "https://www.nxp.com/docs/en/data-sheet/MMZ09332B.pdf" H 6300 5100 60  0001 C CNN
	1    5900 4600
	1    0    0    -1  
$EndComp
Wire Wire Line
	4000 4350 4000 4500
Wire Wire Line
	4000 4500 4000 4650
Wire Wire Line
	4000 4650 4000 4900
Wire Wire Line
	4000 4000 4000 4350
Wire Wire Line
	4550 4800 4700 4800
Wire Wire Line
	5000 4800 5300 4800
Connection ~ 6500 4600
Wire Wire Line
	6500 4600 6500 4750
Text Label 4800 4500 0    50   ~ 0
VBA1
Text Label 4800 4350 0    50   ~ 0
VBA2
Text Label 5800 3850 0    50   ~ 0
PA_VCC1
Text Label 6800 4350 0    50   ~ 0
PA_VCC2
Text Label 6550 4600 0    50   ~ 0
PA_OUT
Connection ~ 7400 4600
Text Label 5050 4800 0    50   ~ 0
PA_In
Wire Wire Line
	6200 5150 6200 5200
Wire Wire Line
	6200 5200 6650 5200
Wire Wire Line
	6650 5200 6650 5400
$Comp
L power:GND #PWR058
U 1 1 5A969121
P 6650 5400
F 0 "#PWR058" H 6650 5150 50  0001 C CNN
F 1 "GND" H 6655 5227 50  0000 C CNN
F 2 "" H 6650 5400 50  0001 C CNN
F 3 "" H 6650 5400 50  0001 C CNN
	1    6650 5400
	1    0    0    -1  
$EndComp
Connection ~ 7550 3900
Wire Wire Line
	7550 3900 7950 3900
Connection ~ 7850 4600
Wire Wire Line
	7850 4600 8250 4600
Wire Wire Line
	7700 4600 7850 4600
$Comp
L power:GND #PWR0301
U 1 1 5AD6D78D
P 8250 4900
F 0 "#PWR0301" H 8250 4650 50  0001 C CNN
F 1 "GND" H 8250 4750 50  0000 C CNN
F 2 "" H 8250 4900 50  0001 C CNN
F 3 "" H 8250 4900 50  0001 C CNN
	1    8250 4900
	1    0    0    -1  
$EndComp
$Comp
L Device:C C36
U 1 1 5AD6D794
P 8250 4750
F 0 "C36" H 8275 4850 50  0000 L CNN
F 1 "18pF" H 8275 4650 50  0000 L CNN
F 2 "Capacitor_SMD:C_0603_1608Metric_Pad0.99x1.00mm_HandSolder" H 8288 4600 50  0001 C CNN
F 3 "" H 8250 4750 50  0001 C CNN
F 4 "06033J180GBT2A" H 8250 4750 50  0001 C CNN "Part Number"
	1    8250 4750
	1    0    0    -1  
$EndComp
Connection ~ 8250 4600
Wire Wire Line
	8250 4600 8600 4600
Wire Wire Line
	6500 3800 6500 4250
$Comp
L power:GND #PWR023
U 1 1 5AE4A7E4
P 6800 2650
F 0 "#PWR023" H 6800 2400 50  0001 C CNN
F 1 "GND" H 6800 2500 50  0000 C CNN
F 2 "" H 6800 2650 50  0001 C CNN
F 3 "" H 6800 2650 50  0001 C CNN
	1    6800 2650
	1    0    0    -1  
$EndComp
Wire Wire Line
	4900 2450 5150 2450
Wire Wire Line
	6650 2550 6800 2550
Wire Wire Line
	6800 2550 6800 2650
Wire Wire Line
	5950 2250 5550 2250
Wire Wire Line
	5550 2250 5550 1600
Wire Wire Line
	6650 2250 6700 2250
Wire Wire Line
	7550 3900 7550 3600
Wire Wire Line
	7550 3600 7600 3600
$Comp
L Device:R R11
U 1 1 5AE4E00A
P 5750 2750
F 0 "R11" H 5820 2796 50  0000 L CNN
F 1 "110" H 5820 2705 50  0000 L CNN
F 2 "Resistor_SMD:R_0603_1608Metric_Pad0.99x1.00mm_HandSolder" V 5680 2750 50  0001 C CNN
F 3 "~" H 5750 2750 50  0001 C CNN
	1    5750 2750
	1    0    0    -1  
$EndComp
$Comp
L power:GND #PWR022
U 1 1 5AE4E066
P 5750 2950
F 0 "#PWR022" H 5750 2700 50  0001 C CNN
F 1 "GND" H 5750 2800 50  0000 C CNN
F 2 "" H 5750 2950 50  0001 C CNN
F 3 "" H 5750 2950 50  0001 C CNN
	1    5750 2950
	1    0    0    -1  
$EndComp
Wire Wire Line
	5750 2950 5750 2900
Wire Wire Line
	5750 2600 5750 2550
Wire Wire Line
	5750 2550 5950 2550
$Comp
L Device:R R4
U 1 1 5AE4F1FE
P 7350 2100
F 0 "R4" H 7420 2146 50  0000 L CNN
F 1 "100K" H 7420 2055 50  0000 L CNN
F 2 "Resistor_SMD:R_0603_1608Metric_Pad0.99x1.00mm_HandSolder" V 7280 2100 50  0001 C CNN
F 3 "~" H 7350 2100 50  0001 C CNN
	1    7350 2100
	1    0    0    -1  
$EndComp
$Comp
L Device:R R5
U 1 1 5AE4F266
P 7750 2100
F 0 "R5" H 7820 2146 50  0000 L CNN
F 1 "100K" H 7820 2055 50  0000 L CNN
F 2 "Resistor_SMD:R_0603_1608Metric_Pad0.99x1.00mm_HandSolder" V 7680 2100 50  0001 C CNN
F 3 "~" H 7750 2100 50  0001 C CNN
	1    7750 2100
	1    0    0    -1  
$EndComp
Wire Wire Line
	6650 2450 7750 2450
Wire Wire Line
	7750 2450 7750 2250
Wire Wire Line
	7350 2250 7350 2350
Wire Wire Line
	7350 2350 6650 2350
$Comp
L power:VCC #PWR052
U 1 1 5AE50669
P 7350 1900
F 0 "#PWR052" H 7350 1750 50  0001 C CNN
F 1 "VCC" H 7367 2073 50  0000 C CNN
F 2 "" H 7350 1900 50  0001 C CNN
F 3 "" H 7350 1900 50  0001 C CNN
	1    7350 1900
	1    0    0    -1  
$EndComp
$Comp
L power:VCC #PWR053
U 1 1 5AE506A0
P 7750 1900
F 0 "#PWR053" H 7750 1750 50  0001 C CNN
F 1 "VCC" H 7767 2073 50  0000 C CNN
F 2 "" H 7750 1900 50  0001 C CNN
F 3 "" H 7750 1900 50  0001 C CNN
	1    7750 1900
	1    0    0    -1  
$EndComp
Wire Wire Line
	7350 1900 7350 1950
Wire Wire Line
	7750 1900 7750 1950
Text HLabel 7750 2450 2    50   Input ~ 0
FLAGB
Text HLabel 7350 2350 2    50   Input ~ 0
PGOOD
Text Label 6700 2250 0    50   ~ 0
PA_VCC
Text Label 7600 3600 0    50   ~ 0
PA_VCC
Text Label 4950 3400 2    50   ~ 0
PA_VCC
Text Label 4000 3950 0    50   ~ 0
PA_VCC
$Comp
L lsd-kicad:FPF2700 U7
U 1 1 5AE4A6D8
P 6300 2400
F 0 "U7" H 6300 2815 50  0000 C CNN
F 1 "FPF2700" H 6300 2724 50  0000 C CNN
F 2 "lsf-kicad-lib:MLP-8" H 6300 2400 50  0001 C CNN
F 3 "https://www.fairchildsemi.com/datasheets/FP/FPF2701.pdf" H 6300 2400 50  0001 C CNN
	1    6300 2400
	1    0    0    -1  
$EndComp
Wire Wire Line
	5450 3400 5500 3400
Wire Wire Line
	4950 3400 5050 3400
Wire Wire Line
	5050 3450 5050 3400
Connection ~ 5050 3400
Wire Wire Line
	5050 3400 5150 3400
Wire Wire Line
	5500 3400 5500 3450
Connection ~ 5500 3400
Wire Wire Line
	5500 3400 5800 3400
Wire Wire Line
	5500 3750 5500 3800
Wire Wire Line
	5050 3800 5050 3750
$Comp
L Device:R R12
U 1 1 5AE4FEF9
P 5150 2200
F 0 "R12" H 5220 2246 50  0000 L CNN
F 1 "100K" H 5220 2155 50  0000 L CNN
F 2 "Resistor_SMD:R_0603_1608Metric_Pad0.99x1.00mm_HandSolder" V 5080 2200 50  0001 C CNN
F 3 "~" H 5150 2200 50  0001 C CNN
	1    5150 2200
	1    0    0    -1  
$EndComp
$Comp
L power:VCC #PWR054
U 1 1 5AE4FF99
P 5150 1900
F 0 "#PWR054" H 5150 1750 50  0001 C CNN
F 1 "VCC" H 5167 2073 50  0000 C CNN
F 2 "" H 5150 1900 50  0001 C CNN
F 3 "" H 5150 1900 50  0001 C CNN
	1    5150 1900
	1    0    0    -1  
$EndComp
Wire Wire Line
	5150 1900 5150 2050
Wire Wire Line
	5150 2350 5150 2450
Connection ~ 5150 2450
Wire Wire Line
	5150 2450 5950 2450
Text Label 5450 2450 0    50   ~ 0
FPF_ON
$Comp
L Jumper:Jumper_3_Open JP?
U 1 1 5B2E6DA2
P 5550 1450
AR Path="/5AFF310C/5B2E6DA2" Ref="JP?"  Part="1" 
AR Path="/5AFF310C/5A7D0D5C/5B2E6DA2" Ref="JP2"  Part="1" 
F 0 "JP2" H 5550 1674 50  0000 C CNN
F 1 "PA V Select" H 5550 1583 50  0000 C CNN
F 2 "Jumper:SolderJumper-3_P2.0mm_Open_TrianglePad1.0x1.5mm_NumberLabels" H 5550 1450 50  0001 C CNN
F 3 "~" H 5550 1450 50  0001 C CNN
	1    5550 1450
	1    0    0    -1  
$EndComp
$Comp
L power:+3V3 #PWR?
U 1 1 5B2E6DA9
P 6050 1450
AR Path="/5AFF310C/5B2E6DA9" Ref="#PWR?"  Part="1" 
AR Path="/5AFF310C/5A7D0D5C/5B2E6DA9" Ref="#PWR029"  Part="1" 
F 0 "#PWR029" H 6050 1300 50  0001 C CNN
F 1 "+3V3" H 6065 1623 50  0000 C CNN
F 2 "" H 6050 1450 50  0001 C CNN
F 3 "" H 6050 1450 50  0001 C CNN
	1    6050 1450
	1    0    0    -1  
$EndComp
Wire Wire Line
	5800 1450 6050 1450
Wire Wire Line
	5300 1450 5050 1450
$Comp
L power:+5V #PWR?
U 1 1 5B2E6DB1
P 5050 1450
AR Path="/5AFF310C/5B2E6DB1" Ref="#PWR?"  Part="1" 
AR Path="/5AFF310C/5A7D0D5C/5B2E6DB1" Ref="#PWR028"  Part="1" 
F 0 "#PWR028" H 5050 1300 50  0001 C CNN
F 1 "+5V" H 5065 1623 50  0000 C CNN
F 2 "" H 5050 1450 50  0001 C CNN
F 3 "" H 5050 1450 50  0001 C CNN
	1    5050 1450
	1    0    0    -1  
$EndComp
Text Label 5650 2250 0    50   ~ 0
PA_V
$EndSCHEMATC
