EESchema Schematic File Version 4
LIBS:Pi-COMMS-cache
EELAYER 26 0
EELAYER END
$Descr A4 11693 8268
encoding utf-8
Sheet 2 3
Title "PQWS Main board - COMMS"
Date "2017-12-05"
Rev ""
Comp "Libre Space Foundation"
Comment1 ""
Comment2 ""
Comment3 ""
Comment4 ""
$EndDescr
Text HLabel 9000 4400 3    60   Input ~ 0
RF_CS
Text HLabel 10050 3650 2    60   Input ~ 0
RF_MISO
Text HLabel 10050 3550 2    60   Input ~ 0
RF_MOSI
Text HLabel 10050 3750 2    60   Input ~ 0
RF_SCK
Text HLabel 10050 3350 2    60   Input ~ 0
RF_IRQ
$Comp
L power:GND #PWR0101
U 1 1 5A7C45B5
P 8650 2500
F 0 "#PWR0101" H 8650 2250 50  0001 C CNN
F 1 "GND" H 8650 2350 50  0000 C CNN
F 2 "" H 8650 2500 50  0001 C CNN
F 3 "" H 8650 2500 50  0001 C CNN
	1    8650 2500
	-1   0    0    1   
$EndComp
$Comp
L power:GND #PWR0103
U 1 1 5A7C45E1
P 9450 2300
F 0 "#PWR0103" H 9450 2050 50  0001 C CNN
F 1 "GND" H 9450 2150 50  0000 C CNN
F 2 "" H 9450 2300 50  0001 C CNN
F 3 "" H 9450 2300 50  0001 C CNN
	1    9450 2300
	1    0    0    -1  
$EndComp
$Comp
L Device:C C21
U 1 1 5A7C4720
P 9450 2050
F 0 "C21" H 9475 2150 50  0000 L CNN
F 1 "4.7uF" H 9475 1950 50  0000 L CNN
F 2 "Capacitor_SMD:C_0603_1608Metric_Pad0.99x1.00mm_HandSolder" H 9488 1900 50  0001 C CNN
F 3 "" H 9450 2050 50  0001 C CNN
	1    9450 2050
	1    0    0    -1  
$EndComp
$Comp
L Device:L L8
U 1 1 5A7C4DB2
P 7000 3750
F 0 "L8" H 6950 3750 50  0000 C CNN
F 1 "100nH" H 6850 3650 50  0000 C CNN
F 2 "Inductor_SMD:L_0603_1608Metric_Pad0.99x1.00mm_HandSolder" H 7000 3750 50  0001 C CNN
F 3 "" H 7000 3750 50  0001 C CNN
	1    7000 3750
	1    0    0    -1  
$EndComp
$Comp
L Device:L L11
U 1 1 5A7C4DE9
P 7600 4500
F 0 "L11" H 7750 4550 50  0000 C CNN
F 1 "100nH" H 7800 4450 50  0000 C CNN
F 2 "Inductor_SMD:L_0603_1608Metric_Pad0.99x1.00mm_HandSolder" H 7600 4500 50  0001 C CNN
F 3 "" H 7600 4500 50  0001 C CNN
	1    7600 4500
	1    0    0    -1  
$EndComp
$Comp
L Device:L L10
U 1 1 5A7C4E06
P 5400 3750
F 0 "L10" H 5300 3800 50  0000 C CNN
F 1 "27nH" H 5550 3800 50  0000 C CNN
F 2 "Inductor_SMD:L_0603_1608Metric_Pad0.99x1.00mm_HandSolder" H 5400 3750 50  0001 C CNN
F 3 "" H 5400 3750 50  0001 C CNN
	1    5400 3750
	-1   0    0    1   
$EndComp
$Comp
L Device:L L6
U 1 1 5A7C4E83
P 5300 3350
F 0 "L6" V 5250 3350 50  0000 C CNN
F 1 "27nH" V 5375 3350 50  0000 C CNN
F 2 "Inductor_SMD:L_0603_1608Metric_Pad0.99x1.00mm_HandSolder" H 5300 3350 50  0001 C CNN
F 3 "" H 5300 3350 50  0001 C CNN
	1    5300 3350
	0    1    1    0   
$EndComp
$Comp
L Device:L L9
U 1 1 5A7C4EE4
P 6750 4350
F 0 "L9" V 6700 4350 50  0000 C CNN
F 1 "43nH" V 6825 4350 50  0000 C CNN
F 2 "Inductor_SMD:L_0603_1608Metric_Pad0.99x1.00mm_HandSolder" H 6750 4350 50  0001 C CNN
F 3 "" H 6750 4350 50  0001 C CNN
	1    6750 4350
	0    1    1    0   
$EndComp
$Comp
L Device:L L7
U 1 1 5A7C4F29
P 6000 4350
F 0 "L7" V 5950 4350 50  0000 C CNN
F 1 "4.7nH" V 6075 4350 50  0000 C CNN
F 2 "Inductor_SMD:L_0603_1608Metric_Pad0.99x1.00mm_HandSolder" H 6000 4350 50  0001 C CNN
F 3 "" H 6000 4350 50  0001 C CNN
	1    6000 4350
	0    1    1    0   
$EndComp
$Comp
L Device:C C19
U 1 1 5A7C4F4E
P 7250 2800
F 0 "C19" H 7275 2900 50  0000 L CNN
F 1 "100pF" H 7275 2700 50  0000 L CNN
F 2 "Capacitor_SMD:C_0603_1608Metric_Pad0.99x1.00mm_HandSolder" H 7288 2650 50  0001 C CNN
F 3 "" H 7250 2800 50  0001 C CNN
F 4 "06036C101JAT2A" H 7250 2800 50  0001 C CNN "Part Number"
	1    7250 2800
	1    0    0    -1  
$EndComp
$Comp
L Device:C C20
U 1 1 5A7C4FC3
P 7500 3800
F 0 "C20" H 7525 3900 50  0000 L CNN
F 1 "100pF" H 7700 3700 50  0000 L CNN
F 2 "Capacitor_SMD:C_0603_1608Metric_Pad0.99x1.00mm_HandSolder" H 7538 3650 50  0001 C CNN
F 3 "" H 7500 3800 50  0001 C CNN
F 4 "06036C101JAT2A" H 7500 3800 50  0001 C CNN "Part Number"
	1    7500 3800
	1    0    0    -1  
$EndComp
$Comp
L Device:C C15
U 1 1 5A7C5024
P 5650 3750
F 0 "C15" H 5675 3850 50  0000 L CNN
F 1 "5.6pF" H 5675 3650 50  0000 L CNN
F 2 "Capacitor_SMD:C_0603_1608Metric_Pad0.99x1.00mm_HandSolder" H 5688 3600 50  0001 C CNN
F 3 "" H 5650 3750 50  0001 C CNN
	1    5650 3750
	1    0    0    -1  
$EndComp
$Comp
L Device:C C16
U 1 1 5A7C5091
P 5150 3550
F 0 "C16" V 5200 3350 50  0000 L CNN
F 1 "5.1pF" V 5300 3450 50  0000 L CNN
F 2 "Capacitor_SMD:C_0603_1608Metric_Pad0.99x1.00mm_HandSolder" H 5188 3400 50  0001 C CNN
F 3 "" H 5150 3550 50  0001 C CNN
	1    5150 3550
	0    1    1    0   
$EndComp
$Comp
L Device:C C13
U 1 1 5A7C50D8
P 4750 3550
F 0 "C13" V 4600 3500 50  0000 L CNN
F 1 "220pF" V 4900 3450 50  0000 L CNN
F 2 "Capacitor_SMD:C_0603_1608Metric_Pad0.99x1.00mm_HandSolder" H 4788 3400 50  0001 C CNN
F 3 "" H 4750 3550 50  0001 C CNN
	1    4750 3550
	0    1    1    0   
$EndComp
$Comp
L Device:C C18
U 1 1 5A7C5113
P 7100 4350
F 0 "C18" V 6950 4250 50  0000 L CNN
F 1 "4.3pF" V 7300 4300 50  0000 L CNN
F 2 "Capacitor_SMD:C_0603_1608Metric_Pad0.99x1.00mm_HandSolder" H 7138 4200 50  0001 C CNN
F 3 "" H 7100 4350 50  0001 C CNN
	1    7100 4350
	0    1    1    0   
$EndComp
$Comp
L Device:C C17
U 1 1 5A7C515E
P 6450 4650
F 0 "C17" H 6475 4750 50  0000 L CNN
F 1 "5.6pF" H 6200 4750 50  0000 L CNN
F 2 "Capacitor_SMD:C_0603_1608Metric_Pad0.99x1.00mm_HandSolder" H 6488 4500 50  0001 C CNN
F 3 "" H 6450 4650 50  0001 C CNN
	1    6450 4650
	-1   0    0    1   
$EndComp
$Comp
L Device:C C14
U 1 1 5A7C51C3
P 6000 4650
F 0 "C14" V 5850 4600 50  0000 L CNN
F 1 "6.8pF" V 5750 4550 50  0000 L CNN
F 2 "Capacitor_SMD:C_0603_1608Metric_Pad0.99x1.00mm_HandSolder" H 6038 4500 50  0001 C CNN
F 3 "" H 6000 4650 50  0001 C CNN
	1    6000 4650
	0    -1   -1   0   
$EndComp
$Comp
L power:GND #PWR0104
U 1 1 5A7C5C9E
P 6450 4900
F 0 "#PWR0104" H 6450 4650 50  0001 C CNN
F 1 "GND" H 6450 4750 50  0000 C CNN
F 2 "" H 6450 4900 50  0001 C CNN
F 3 "" H 6450 4900 50  0001 C CNN
	1    6450 4900
	1    0    0    -1  
$EndComp
$Comp
L power:GND #PWR06
U 1 1 5A7C5D04
P 7600 4700
F 0 "#PWR06" H 7600 4450 50  0001 C CNN
F 1 "GND" H 7600 4550 50  0000 C CNN
F 2 "" H 7600 4700 50  0001 C CNN
F 3 "" H 7600 4700 50  0001 C CNN
	1    7600 4700
	1    0    0    -1  
$EndComp
$Comp
L power:GND #PWR07
U 1 1 5A7C5D36
P 5650 3950
F 0 "#PWR07" H 5650 3700 50  0001 C CNN
F 1 "GND" H 5650 3800 50  0000 C CNN
F 2 "" H 5650 3950 50  0001 C CNN
F 3 "" H 5650 3950 50  0001 C CNN
	1    5650 3950
	1    0    0    -1  
$EndComp
$Comp
L power:GND #PWR08
U 1 1 5A7C5D68
P 5400 3950
F 0 "#PWR08" H 5400 3700 50  0001 C CNN
F 1 "GND" H 5400 3800 50  0000 C CNN
F 2 "" H 5400 3950 50  0001 C CNN
F 3 "" H 5400 3950 50  0001 C CNN
	1    5400 3950
	1    0    0    -1  
$EndComp
$Comp
L Connector:Conn_Coaxial J2
U 1 1 5A7C6E33
P 1950 3700
F 0 "J2" H 1960 3820 50  0000 C CNN
F 1 "MMCX" V 2065 3700 50  0000 C CNN
F 2 "Connector_Coaxial:SMA_Jack_Vertical" H 1950 3700 50  0001 C CNN
F 3 "" H 1950 3700 50  0001 C CNN
F 4 "CONMMCX002-SMD" H 1950 3700 50  0001 C CNN "Part Number"
	1    1950 3700
	-1   0    0    -1  
$EndComp
$Comp
L power:GND #PWR09
U 1 1 5A7C6FF4
P 1950 4000
F 0 "#PWR09" H 1950 3750 50  0001 C CNN
F 1 "GND" H 1950 3850 50  0000 C CNN
F 2 "" H 1950 4000 50  0001 C CNN
F 3 "" H 1950 4000 50  0001 C CNN
	1    1950 4000
	1    0    0    -1  
$EndComp
$Sheet
S 4450 4250 1000 700 
U 5A7D0D5C
F0 "Power Amplifier" 60
F1 "Power_Amplifier.sch" 60
F2 "PowerDown" I L 4450 4500 60 
F3 "PDET" I R 5450 4500 60 
F4 "PA_RF_IN" I R 5450 4350 50 
F5 "PA_RF_OUT" I L 4450 4350 50 
F6 "FLAGB" I L 4450 4800 50 
F7 "PGOOD" I L 4450 4900 50 
$EndSheet
$Comp
L power:GND #PWR011
U 1 1 5A7D47C5
P 9400 4250
F 0 "#PWR011" H 9400 4000 50  0001 C CNN
F 1 "GND" H 9400 4100 50  0000 C CNN
F 2 "" H 9400 4250 50  0001 C CNN
F 3 "" H 9400 4250 50  0001 C CNN
	1    9400 4250
	1    0    0    -1  
$EndComp
Wire Wire Line
	9000 4250 9000 4400
Wire Wire Line
	9850 3350 10050 3350
Wire Wire Line
	10050 3550 9850 3550
Wire Wire Line
	9850 3650 10050 3650
Wire Wire Line
	10050 3750 9850 3750
Wire Wire Line
	9450 1600 9450 1750
Wire Wire Line
	9450 2200 9450 2300
Wire Wire Line
	8850 2650 8850 1750
Connection ~ 9450 1750
Wire Wire Line
	8650 2500 8650 2650
Wire Wire Line
	8650 2650 8550 2650
Wire Wire Line
	7650 3250 7400 3250
Wire Wire Line
	7650 3150 7650 2650
Wire Wire Line
	7650 2650 7250 2650
Wire Wire Line
	7350 3650 7500 3650
Wire Wire Line
	7650 3750 7650 4100
Wire Wire Line
	7350 3950 7350 3650
Wire Wire Line
	7650 3450 7000 3450
Wire Wire Line
	5400 3950 5400 3900
Wire Wire Line
	5650 3550 5650 3600
Wire Wire Line
	5650 3900 5650 3950
Wire Wire Line
	4900 3550 4950 3550
Wire Wire Line
	5150 3350 4950 3350
Wire Wire Line
	4950 3350 4950 3550
Connection ~ 4950 3550
Wire Wire Line
	6950 4350 6900 4350
Wire Wire Line
	6150 4350 6250 4350
Wire Wire Line
	5750 4350 5750 4650
Wire Wire Line
	6450 4350 6450 4500
Connection ~ 6450 4350
Wire Wire Line
	6450 4800 6450 4900
Wire Wire Line
	7250 3550 7250 4350
Wire Wire Line
	4300 4350 4450 4350
Text GLabel 10050 3250 2    60   Input ~ 0
PA_POWER_EN
Text GLabel 3750 4500 0    60   Input ~ 0
PA_POWER_EN
NoConn ~ 8950 2650
NoConn ~ 8750 2650
NoConn ~ 8400 4250
NoConn ~ 8900 4250
Wire Wire Line
	3750 4500 3750 3900
Wire Wire Line
	5450 4500 5650 4500
Wire Wire Line
	5650 4500 5650 5250
Wire Wire Line
	5650 5250 5750 5250
$Comp
L lsd-kicad:AX5043 U4
U 1 1 5A7DC5A0
P 8750 3450
F 0 "U4" H 8750 3350 50  0000 C CNN
F 1 "AX5043" H 8750 3500 50  0000 C CNN
F 2 "lsf-kicad-lib:AX5043" H 10050 4200 50  0001 C CNN
F 3 "https://www.onsemi.com/pub/Collateral/AX5043-D.PDF" H 10100 4100 50  0001 C CNN
	1    8750 3450
	1    0    0    -1  
$EndComp
$Comp
L power:GND #PWR012
U 1 1 5A84E15A
P 7250 3100
F 0 "#PWR012" H 7250 2850 50  0001 C CNN
F 1 "GND" H 7250 2950 50  0000 C CNN
F 2 "" H 7250 3100 50  0001 C CNN
F 3 "" H 7250 3100 50  0001 C CNN
	1    7250 3100
	1    0    0    -1  
$EndComp
Wire Wire Line
	7400 3250 7400 3100
Wire Wire Line
	7400 3100 7250 3100
Wire Wire Line
	7250 3100 7250 2950
NoConn ~ 9850 3450
Wire Wire Line
	9450 1750 9450 1900
Wire Wire Line
	7500 3650 7650 3650
Wire Wire Line
	4950 3550 5000 3550
Wire Wire Line
	6450 4350 6600 4350
Wire Wire Line
	7250 3550 7650 3550
$Comp
L power:VCC #PWR0105
U 1 1 5A867315
P 9450 1600
F 0 "#PWR0105" H 9450 1450 50  0001 C CNN
F 1 "VCC" H 9467 1773 50  0000 C CNN
F 2 "" H 9450 1600 50  0001 C CNN
F 3 "" H 9450 1600 50  0001 C CNN
	1    9450 1600
	1    0    0    -1  
$EndComp
$Comp
L lsd-kicad:KT1612A U2
U 1 1 5A8A39F7
P 7300 1250
F 0 "U2" H 7275 1715 50  0000 C CNN
F 1 "KT1612A" H 7275 1624 50  0000 C CNN
F 2 "lsf-kicad-lib:KT1612A" H 7300 1250 50  0001 C CNN
F 3 "https://www.mouser.com/ds/2/40/kt1612_e-1140390.pdf" H 7300 1250 50  0001 C CNN
	1    7300 1250
	1    0    0    -1  
$EndComp
$Comp
L power:GND #PWR045
U 1 1 5A85FBA0
P 7400 1950
F 0 "#PWR045" H 7400 1700 50  0001 C CNN
F 1 "GND" H 7405 1777 50  0000 C CNN
F 2 "" H 7400 1950 50  0001 C CNN
F 3 "" H 7400 1950 50  0001 C CNN
	1    7400 1950
	1    0    0    -1  
$EndComp
$Comp
L Device:C C30
U 1 1 5A85FC99
P 8350 1750
F 0 "C30" H 8465 1796 50  0000 L CNN
F 1 "1nF" H 8465 1705 50  0000 L CNN
F 2 "Capacitor_SMD:C_0603_1608Metric_Pad0.99x1.00mm_HandSolder" H 8388 1600 50  0001 C CNN
F 3 "" H 8350 1750 50  0001 C CNN
	1    8350 1750
	1    0    0    -1  
$EndComp
$Comp
L Device:C C29
U 1 1 5A85FF47
P 7850 1450
F 0 "C29" H 7965 1496 50  0000 L CNN
F 1 "10pF" H 7965 1405 50  0000 L CNN
F 2 "Capacitor_SMD:C_0603_1608Metric_Pad0.99x1.00mm_HandSolder" H 7888 1300 50  0001 C CNN
F 3 "" H 7850 1450 50  0001 C CNN
F 4 "06036A100FAT2A" H 7850 1450 50  0001 C CNN "Part Number"
	1    7850 1450
	1    0    0    -1  
$EndComp
$Comp
L Device:C C28
U 1 1 5A85FFB0
P 6600 1450
F 0 "C28" H 6715 1496 50  0000 L CNN
F 1 "10nF" H 6715 1405 50  0000 L CNN
F 2 "Capacitor_SMD:C_0603_1608Metric_Pad0.99x1.00mm_HandSolder" H 6638 1300 50  0001 C CNN
F 3 "" H 6600 1450 50  0001 C CNN
F 4 "06036A100FAT2A" H 6600 1450 50  0001 C CNN "Part Number"
	1    6600 1450
	1    0    0    -1  
$EndComp
Wire Wire Line
	7850 1600 7850 1750
Wire Wire Line
	7850 1750 7400 1750
Wire Wire Line
	7400 1750 7200 1750
Connection ~ 7400 1750
Wire Wire Line
	7200 1750 6600 1750
Wire Wire Line
	6600 1750 6600 1600
Connection ~ 7200 1750
Wire Wire Line
	6600 1050 6600 1300
Wire Wire Line
	7750 1050 7850 1050
Wire Wire Line
	7850 1050 7850 1300
Wire Wire Line
	7850 1050 8350 1050
Wire Wire Line
	8350 1050 8350 1600
Connection ~ 7850 1050
Wire Wire Line
	8350 1900 8350 2650
Wire Wire Line
	7400 1750 7400 1950
NoConn ~ 8450 2650
Wire Wire Line
	8500 4250 8600 4250
Wire Wire Line
	5750 4650 5850 4650
Wire Wire Line
	6150 4650 6250 4650
Wire Wire Line
	6250 4650 6250 4350
Connection ~ 6250 4350
Wire Wire Line
	6250 4350 6450 4350
Wire Wire Line
	5450 4350 5750 4350
Wire Wire Line
	5750 4350 5850 4350
Connection ~ 5750 4350
Wire Wire Line
	7600 4650 7600 4700
Connection ~ 7250 4350
Wire Wire Line
	7250 4350 7600 4350
$Comp
L power:GND #PWR027
U 1 1 5A8C2DAE
P 7000 3950
F 0 "#PWR027" H 7000 3700 50  0001 C CNN
F 1 "GND" H 7000 3800 50  0000 C CNN
F 2 "" H 7000 3950 50  0001 C CNN
F 3 "" H 7000 3950 50  0001 C CNN
	1    7000 3950
	1    0    0    -1  
$EndComp
$Comp
L power:GND #PWR048
U 1 1 5A8C2DE5
P 7350 3950
F 0 "#PWR048" H 7350 3700 50  0001 C CNN
F 1 "GND" H 7350 3800 50  0000 C CNN
F 2 "" H 7350 3950 50  0001 C CNN
F 3 "" H 7350 3950 50  0001 C CNN
	1    7350 3950
	1    0    0    -1  
$EndComp
Wire Wire Line
	7000 3900 7000 3950
Wire Wire Line
	7000 3450 7000 3550
$Comp
L Device:L L12
U 1 1 5A8E1013
P 6000 3550
F 0 "L12" V 5950 3550 50  0000 C CNN
F 1 "43nH" V 6075 3550 50  0000 C CNN
F 2 "Inductor_SMD:L_0603_1608Metric_Pad0.99x1.00mm_HandSolder" H 6000 3550 50  0001 C CNN
F 3 "" H 6000 3550 50  0001 C CNN
	1    6000 3550
	0    1    1    0   
$EndComp
$Comp
L Device:C C2
U 1 1 5A8E1069
P 6350 3550
F 0 "C2" V 6500 3500 50  0000 L CNN
F 1 "4.3pF" V 6400 3650 50  0000 L CNN
F 2 "Capacitor_SMD:C_0603_1608Metric_Pad0.99x1.00mm_HandSolder" H 6388 3400 50  0001 C CNN
F 3 "" H 6350 3550 50  0001 C CNN
	1    6350 3550
	0    1    1    0   
$EndComp
Wire Wire Line
	5650 3550 5850 3550
Wire Wire Line
	6150 3550 6200 3550
Wire Wire Line
	6500 3550 7000 3550
Connection ~ 7000 3550
Wire Wire Line
	7000 3550 7000 3600
$Comp
L Device:C C1
U 1 1 5A8EFBDB
P 6150 3100
F 0 "C1" H 6175 3200 50  0000 L CNN
F 1 "11pF" H 6175 3000 50  0000 L CNN
F 2 "Capacitor_SMD:C_0603_1608Metric_Pad0.99x1.00mm_HandSolder" H 6188 2950 50  0001 C CNN
F 3 "" H 6150 3100 50  0001 C CNN
	1    6150 3100
	1    0    0    -1  
$EndComp
$Comp
L power:GND #PWR05
U 1 1 5A8EFC76
P 6150 2900
F 0 "#PWR05" H 6150 2650 50  0001 C CNN
F 1 "GND" H 6150 2750 50  0000 C CNN
F 2 "" H 6150 2900 50  0001 C CNN
F 3 "" H 6150 2900 50  0001 C CNN
	1    6150 2900
	-1   0    0    1   
$EndComp
Wire Wire Line
	6150 2900 6150 2950
Wire Wire Line
	5400 3600 5400 3550
Wire Wire Line
	6150 3250 6150 3350
$Comp
L Device:L L13
U 1 1 5A8F88B6
P 6350 3350
F 0 "L13" V 6300 3350 50  0000 C CNN
F 1 "43nH" V 6425 3350 50  0000 C CNN
F 2 "Inductor_SMD:L_0603_1608Metric_Pad0.99x1.00mm_HandSolder" H 6350 3350 50  0001 C CNN
F 3 "" H 6350 3350 50  0001 C CNN
	1    6350 3350
	0    1    1    0   
$EndComp
$Comp
L Device:C C31
U 1 1 5A8F88BC
P 6750 3350
F 0 "C31" V 6900 3300 50  0000 L CNN
F 1 "4.3pF" V 6800 3450 50  0000 L CNN
F 2 "Capacitor_SMD:C_0603_1608Metric_Pad0.99x1.00mm_HandSolder" H 6788 3200 50  0001 C CNN
F 3 "" H 6750 3350 50  0001 C CNN
	1    6750 3350
	0    1    1    0   
$EndComp
Wire Wire Line
	6500 3350 6600 3350
Wire Wire Line
	6150 3350 6200 3350
Wire Wire Line
	6900 3350 7000 3350
$Comp
L Device:L L14
U 1 1 5A8FF8A8
P 7000 3000
F 0 "L14" H 6900 3000 50  0000 C CNN
F 1 "100nH" H 6850 2900 50  0000 C CNN
F 2 "Inductor_SMD:L_0603_1608Metric_Pad0.99x1.00mm_HandSolder" H 7000 3000 50  0001 C CNN
F 3 "" H 7000 3000 50  0001 C CNN
	1    7000 3000
	1    0    0    -1  
$EndComp
$Comp
L power:GND #PWR026
U 1 1 5A8FF90C
P 7000 2750
F 0 "#PWR026" H 7000 2500 50  0001 C CNN
F 1 "GND" H 7000 2600 50  0000 C CNN
F 2 "" H 7000 2750 50  0001 C CNN
F 3 "" H 7000 2750 50  0001 C CNN
	1    7000 2750
	-1   0    0    1   
$EndComp
Wire Wire Line
	7000 2750 7000 2850
Wire Wire Line
	7000 3150 7000 3350
Connection ~ 7000 3350
Wire Wire Line
	7000 3350 7650 3350
Text Label 7450 3350 0    50   ~ 0
ANTP
Text Label 7450 3450 0    50   ~ 0
ANTN
Text Label 7450 3550 0    50   ~ 0
ANTP1
Text Label 4500 3550 2    50   ~ 0
RF_IN
Text Label 2200 3700 0    50   ~ 0
ANT_CON
Text Label 7650 2750 0    50   ~ 0
VDD_ANA1
Text Label 7650 4100 0    50   ~ 0
VDD_ANA2
Connection ~ 7500 3650
Wire Wire Line
	7500 3950 7500 4100
Wire Wire Line
	7500 4100 7650 4100
Text Label 8550 4250 3    50   ~ 0
L1L2
Text Label 8350 2050 0    50   ~ 0
CLK16P
Text Label 8000 1050 0    50   ~ 0
TCXO_OUT
Text HLabel 5750 5250 2    50   Input ~ 0
PA_PDet
Wire Wire Line
	9850 3250 10000 3250
$Comp
L Connector:Test_Point_Probe TP2
U 1 1 5AE12514
P 10000 3150
F 0 "TP2" H 10153 3252 50  0000 L CNN
F 1 "PA TP" H 10153 3161 50  0000 L CNN
F 2 "TestPoint:TestPoint_Pad_D1.5mm" H 10200 3150 50  0001 C CNN
F 3 "~" H 10200 3150 50  0001 C CNN
	1    10000 3150
	1    0    0    -1  
$EndComp
Wire Wire Line
	10000 3150 10000 3250
Connection ~ 10000 3250
Wire Wire Line
	10000 3250 10050 3250
Wire Wire Line
	10000 3250 10000 3350
Wire Wire Line
	10000 3550 10000 3650
Wire Wire Line
	10000 3650 10000 3750
$Comp
L Connector:Test_Point_Probe TP1
U 1 1 5AE15E50
P 5650 5250
F 0 "TP1" H 5803 5352 50  0000 L CNN
F 1 "PDet TP" H 5803 5261 50  0000 L CNN
F 2 "TestPoint:TestPoint_Pad_D1.5mm" H 5850 5250 50  0001 C CNN
F 3 "~" H 5850 5250 50  0001 C CNN
	1    5650 5250
	-1   0    0    -1  
$EndComp
Connection ~ 5650 5250
Wire Wire Line
	10000 3350 10000 3550
$Comp
L lsd-kicad:F2972 U3
U 1 1 5AE11D5B
P 3200 3700
F 0 "U3" H 3350 4000 50  0000 C CNN
F 1 "F2972" H 3200 3700 50  0000 C CNN
F 2 "lsf-kicad-lib:NEG-12" H 3200 3700 50  0001 C CNN
F 3 "" H 3200 3700 50  0001 C CNN
	1    3200 3700
	1    0    0    -1  
$EndComp
Wire Wire Line
	2150 3700 2650 3700
Wire Wire Line
	3750 4500 4450 4500
Wire Wire Line
	4300 3650 3750 3650
Wire Wire Line
	4300 3650 4300 4350
Text GLabel 10650 2350 2    60   Input ~ 0
RFSW_EN
Text GLabel 3800 3800 2    60   Input ~ 0
RFSW_EN
Wire Wire Line
	3800 3800 3750 3800
$Comp
L power:GND #PWR051
U 1 1 5AE3B569
P 3200 4150
F 0 "#PWR051" H 3200 3900 50  0001 C CNN
F 1 "GND" H 3200 4000 50  0000 C CNN
F 2 "" H 3200 4150 50  0001 C CNN
F 3 "" H 3200 4150 50  0001 C CNN
	1    3200 4150
	1    0    0    -1  
$EndComp
$Comp
L power:VCC #PWR010
U 1 1 5AE3B5CE
P 3200 3250
F 0 "#PWR010" H 3200 3100 50  0001 C CNN
F 1 "VCC" H 3217 3423 50  0000 C CNN
F 2 "" H 3200 3250 50  0001 C CNN
F 3 "" H 3200 3250 50  0001 C CNN
	1    3200 3250
	1    0    0    -1  
$EndComp
Wire Wire Line
	3200 3250 3200 3350
Wire Wire Line
	3200 4100 3200 4150
Wire Wire Line
	5300 3550 5400 3550
Connection ~ 5650 3550
Connection ~ 5400 3550
Wire Wire Line
	5400 3550 5650 3550
Wire Wire Line
	5450 3350 6150 3350
Connection ~ 6150 3350
Wire Wire Line
	1950 4000 1950 3900
Wire Wire Line
	3750 3550 4600 3550
Text Notes 3100 4750 0    50   ~ 0
0: RF1->RFC, PA On\n1: RF2->RFC. PA Off
Wire Wire Line
	4450 4900 4250 4900
Wire Wire Line
	4250 4900 4250 5450
Wire Wire Line
	4250 5450 8700 5450
Wire Wire Line
	8700 5450 8700 4250
Wire Wire Line
	8800 4250 8800 5550
Wire Wire Line
	8800 5550 4150 5550
Wire Wire Line
	4150 5550 4150 4800
Wire Wire Line
	4150 4800 4450 4800
Text Label 4300 3650 0    50   ~ 0
RF_OUT
$Comp
L Device:Jumper_NC_Dual JP1
U 1 1 5AE8006C
P 10500 2350
F 0 "JP1" V 10454 2452 50  0000 L CNN
F 1 "RFSW" V 10545 2452 50  0000 L CNN
F 2 "Jumper:SolderJumper-3_P2.0mm_Open_TrianglePad1.0x1.5mm" H 10500 2350 50  0001 C CNN
F 3 "~" H 10500 2350 50  0001 C CNN
	1    10500 2350
	0    -1   1    0   
$EndComp
Wire Wire Line
	10600 2350 10650 2350
Wire Wire Line
	9850 2100 10500 2100
$Comp
L power:GND #PWR0102
U 1 1 5AE9D474
P 10500 2650
F 0 "#PWR0102" H 10500 2400 50  0001 C CNN
F 1 "GND" H 10500 2500 50  0000 C CNN
F 2 "" H 10500 2650 50  0001 C CNN
F 3 "" H 10500 2650 50  0001 C CNN
	1    10500 2650
	1    0    0    -1  
$EndComp
Wire Wire Line
	10500 2600 10500 2650
Wire Wire Line
	8850 1750 9450 1750
Wire Wire Line
	9850 2100 9850 3150
Text Label 9850 2750 0    50   ~ 0
ANTSEL
Connection ~ 6600 1050
Wire Wire Line
	6600 1050 6800 1050
$Comp
L power:VCC #PWR021
U 1 1 5B2E1B89
P 6600 1050
F 0 "#PWR021" H 6600 900 50  0001 C CNN
F 1 "VCC" H 6617 1223 50  0000 C CNN
F 2 "" H 6600 1050 50  0001 C CNN
F 3 "" H 6600 1050 50  0001 C CNN
	1    6600 1050
	1    0    0    -1  
$EndComp
$EndSCHEMATC
